verilog/adder_testbench.vcd
$date
	Thu Dec  4 02:36:42 2025
$end
$version
	Icarus Verilog
$end
$timescale
	1ps
$end
$scope module adder_testbench $end
$var wire 5 ! S [4:0] $end
$var wire 1 " C_out $end
$var reg 5 # A [4:0] $end
$var reg 5 $ B [4:0] $end
$var reg 1 % C_in $end
$var reg 1 & clk $end
$scope module uut $end
$var wire 5 ' A [4:0] $end
$var wire 5 ( B [4:0] $end
$var wire 1 % C_in $end
$var wire 5 ) G [4:0] $end
$var wire 5 * P [4:0] $end
$var wire 1 & clk $end
$var wire 6 + C [5:0] $end
$var reg 5 , A1 [4:0] $end
$var reg 5 - B1 [4:0] $end
$var reg 1 " C_out $end
$var reg 5 . S [4:0] $end
$upscope $end
$upscope $end
$enddefinitions $end
$comment Show the parameter values. $end
$dumpall
$end
#0
$dumpvars
bx .
bx -
bx ,
bx0 +
bx *
bx )
b0 (
b0 '
0&
0%
b0 $
b0 #
x"
bx !
$end
#1000
b0 +
b0 *
b0 )
b0 -
b0 ,
1&
#2000
0&
#3000
b1 *
b1 -
0"
b0 !
b0 .
1&
b1 $
b1 (
#4000
0&
#5000
b1 !
b1 .
1&
#6000
0&
b0 $
b0 (
b1 #
b1 '
#7000
b0 -
b1 ,
1&
#8000
0&
#9000
b10 +
b0 *
b1 )
b1 -
1&
b1 $
b1 (
#10000
0&
#11000
b10 !
b10 .
1&
#12000
0&
b0 #
b0 '
b10 $
b10 (
#13000
b0 +
b10 *
b0 )
b10 -
b0 ,
1&
#14000
0&
#15000
b11 *
b11 -
1&
b11 $
b11 (
#16000
0&
#17000
b11 !
b11 .
1&
#18000
0&
b10 $
b10 (
b1 #
b1 '
#19000
b10 -
b1 ,
1&
#20000
0&
#21000
b110 +
b10 *
b1 )
b11 -
1&
b11 $
b11 (
#22000
0&
#23000
b100 !
b100 .
1&
#24000
0&
b0 $
b0 (
b10 #
b10 '
#25000
b0 +
b0 )
b0 -
b10 ,
1&
#26000
0&
#27000
b11 *
b1 -
b10 !
b10 .
1&
b1 $
b1 (
#28000
0&
#29000
b11 !
b11 .
1&
#30000
0&
b0 $
b0 (
b11 #
b11 '
#31000
b0 -
b11 ,
1&
#32000
0&
#33000
b110 +
b10 *
b1 )
b1 -
1&
b1 $
b1 (
#34000
0&
#35000
b100 !
b100 .
1&
#36000
0&
b10 #
b10 '
b10 $
b10 (
#37000
b100 +
b0 *
b10 )
b10 -
b10 ,
1&
#38000
0&
#39000
b1 *
b11 -
1&
b11 $
b11 (
#40000
0&
#41000
b101 !
b101 .
1&
#42000
0&
b10 $
b10 (
b11 #
b11 '
#43000
b10 -
b11 ,
1&
#44000
0&
#45000
b110 +
b0 *
b11 )
b11 -
1&
b11 $
b11 (
#46000
0&
#47000
b110 !
b110 .
1&
#48000
0&
b0 #
b0 '
b100 $
b100 (
#49000
b0 +
b100 *
b0 )
b100 -
b0 ,
1&
#50000
0&
#51000
b101 *
b101 -
b100 !
b100 .
1&
b101 $
b101 (
#52000
0&
#53000
b101 !
b101 .
1&
#54000
0&
b100 $
b100 (
b1 #
b1 '
#55000
b100 -
b1 ,
1&
#56000
0&
#57000
b10 +
b100 *
b1 )
b101 -
1&
b101 $
b101 (
#58000
0&
#59000
b110 !
b110 .
1&
#60000
0&
b0 #
b0 '
b110 $
b110 (
#61000
b0 +
b110 *
b0 )
b110 -
b0 ,
1&
#62000
0&
#63000
b111 *
b111 -
1&
b111 $
b111 (
#64000
0&
#65000
b111 !
b111 .
1&
#66000
0&
b110 $
b110 (
b1 #
b1 '
#67000
b110 -
b1 ,
1&
#68000
0&
#69000
b1110 +
b110 *
b1 )
b111 -
1&
b111 $
b111 (
#70000
0&
#71000
b1000 !
b1000 .
1&
#72000
0&
b100 $
b100 (
b10 #
b10 '
#73000
b0 +
b0 )
b100 -
b10 ,
1&
#74000
0&
#75000
b111 *
b101 -
b110 !
b110 .
1&
b101 $
b101 (
#76000
0&
#77000
b111 !
b111 .
1&
#78000
0&
b100 $
b100 (
b11 #
b11 '
#79000
b100 -
b11 ,
1&
#80000
0&
#81000
b1110 +
b110 *
b1 )
b101 -
1&
b101 $
b101 (
#82000
0&
#83000
b1000 !
b1000 .
1&
#84000
0&
b10 #
b10 '
b110 $
b110 (
#85000
b1100 +
b100 *
b10 )
b110 -
b10 ,
1&
#86000
0&
#87000
b101 *
b111 -
1&
b111 $
b111 (
#88000
0&
#89000
b1001 !
b1001 .
1&
#90000
0&
b110 $
b110 (
b11 #
b11 '
#91000
b110 -
b11 ,
1&
#92000
0&
#93000
b1110 +
b100 *
b11 )
b111 -
1&
b111 $
b111 (
#94000
0&
#95000
b1010 !
b1010 .
1&
#96000
0&
b0 $
b0 (
b100 #
b100 '
#97000
b0 +
b0 )
b0 -
b100 ,
1&
#98000
0&
#99000
b101 *
b1 -
b100 !
b100 .
1&
b1 $
b1 (
